\relax 
\providecommand\hyper@newdestlabel[2]{}
\catcode `"\active 
\catcode `-\active 
\providecommand\HyperFirstAtBeginDocument{\AtBeginDocument}
\HyperFirstAtBeginDocument{\ifx\hyper@anchor\@undefined
\global\let\oldcontentsline\contentsline
\gdef\contentsline#1#2#3#4{\oldcontentsline{#1}{#2}{#3}}
\global\let\oldnewlabel\newlabel
\gdef\newlabel#1#2{\newlabelxx{#1}#2}
\gdef\newlabelxx#1#2#3#4#5#6{\oldnewlabel{#1}{{#2}{#3}}}
\AtEndDocument{\ifx\hyper@anchor\@undefined
\let\contentsline\oldcontentsline
\let\newlabel\oldnewlabel
\fi}
\fi}
\global\let\hyper@last\relax 
\gdef\HyperFirstAtBeginDocument#1{#1}
\providecommand\HyField@AuxAddToFields[1]{}
\providecommand\HyField@AuxAddToCoFields[2]{}
\select@language{czech}
\@writefile{toc}{\select@language{czech}}
\@writefile{lof}{\select@language{czech}}
\@writefile{lot}{\select@language{czech}}
\@writefile{toc}{\contentsline {section}{\numberline {1}Co je to Git?}{2}{section.1}}
\@writefile{toc}{\contentsline {subsection}{\numberline {1.1}Git Bash}{2}{subsection.1.1}}
\@writefile{toc}{\contentsline {subsection}{\numberline {1.2}Bitbucket}{2}{subsection.1.2}}
\@writefile{lof}{\contentsline {figure}{\numberline {1}{\ignorespaces Okno programu Git Bash\relax }}{3}{figure.caption.2}}
\providecommand*\caption@xref[2]{\@setref\relax\@undefined{#1}}
\newlabel{fig.okno_uvod}{{1}{3}{Okno programu Git Bash\relax }{figure.caption.2}{}}
\@writefile{lof}{\contentsline {figure}{\numberline {2}{\ignorespaces Domovsk\IeC {\'a} str\IeC {\'a}nka Bitbucket\relax }}{3}{figure.caption.3}}
\newlabel{fig.okno_bb}{{2}{3}{Domovská stránka Bitbucket\relax }{figure.caption.3}{}}
\@writefile{toc}{\contentsline {section}{\numberline {2}Zakl\IeC {\'a}d\IeC {\'a}me projekt ve slu\IeC {\v z}b\IeC {\v e} Git}{3}{section.2}}
\@writefile{toc}{\contentsline {subsection}{\numberline {2.1}Vytvo\IeC {\v r}en\IeC {\'\i } projektu na Bitbucket}{4}{subsection.2.1}}
\@writefile{lof}{\contentsline {figure}{\numberline {3}{\ignorespaces Horn\IeC {\'\i } li\IeC {\v s}ta okna Bitbucket\relax }}{4}{figure.caption.4}}
\newlabel{fig.create_1}{{3}{4}{Horní lišta okna Bitbucket\relax }{figure.caption.4}{}}
\@writefile{lof}{\contentsline {figure}{\numberline {4}{\ignorespaces Zakl\IeC {\'a}d\IeC {\'a}n\IeC {\'\i } projektu ve slu\IeC {\v z}b\IeC {\v e} Bitbucket\relax }}{5}{figure.caption.5}}
\newlabel{fig.create_2}{{4}{5}{Zakládání projektu ve službě Bitbucket\relax }{figure.caption.5}{}}
\@writefile{lof}{\contentsline {figure}{\numberline {5}{\ignorespaces Kontrola ulo\IeC {\v z}en\IeC {\'\i } commitu\relax }}{8}{figure.caption.6}}
\newlabel{fig.create_3}{{5}{8}{Kontrola uložení commitu\relax }{figure.caption.6}{}}
\@writefile{toc}{\contentsline {subsection}{\numberline {2.2}Stahujeme projekt z Bitbucket}{8}{subsection.2.2}}
\@writefile{lof}{\contentsline {figure}{\numberline {6}{\ignorespaces Z\IeC {\'\i }sk\IeC {\'a}n\IeC {\'\i } odkazu projektu\relax }}{9}{figure.caption.7}}
\newlabel{fig.clone_1}{{6}{9}{Získání odkazu projektu\relax }{figure.caption.7}{}}
\@writefile{toc}{\contentsline {subsubsection}{\numberline {2.2.1}Sta\IeC {\v z}en\IeC {\'\i } ciz\IeC {\'\i }ho projektu}{9}{subsubsection.2.2.1}}
\@writefile{toc}{\contentsline {subsubsection}{\numberline {2.2.2}Sta\IeC {\v z}en\IeC {\'\i } vlastn\IeC {\'\i }ho projektu}{10}{subsubsection.2.2.2}}
\@writefile{toc}{\contentsline {section}{\numberline {3}Pracujeme s projektem}{12}{section.3}}
\@writefile{toc}{\contentsline {subsection}{\numberline {3.1}Stahujeme aktu\IeC {\'a}ln\IeC {\'\i } verzi projektu}{12}{subsection.3.1}}
\@writefile{toc}{\contentsline {subsection}{\numberline {3.2}Nahr\IeC {\'a}v\IeC {\'a}me zm\IeC {\v e}ny na internet}{13}{subsection.3.2}}
